{
	"info": {
		"_postman_id": "93388112-80e8-471d-9bed-f33f45525a0f",
		"name": "UserBanner",
		"schema": "https://schema.getpostman.com/json/collection/v2.1.0/collection.json",
		"_exporter_id": "27140336"
	},
	"item": [
		{
			"name": "NoValidToken",
			"request": {
				"method": "GET",
				"header": [
					{
						"key": "Token",
						"value": "sfasdsafsfa",
						"type": "text"
					}
				],
				"url": {
					"raw": "localhost:8100/user_banner",
					"host": [
						"localhost"
					],
					"port": "8100",
					"path": [
						"user_banner"
					]
				}
			},
			"response": [
				{
					"name": "NoValidToken",
					"originalRequest": {
						"method": "GET",
						"header": [
							{
								"key": "Token",
								"value": "sfasdsafsfa",
								"type": "text"
							}
						],
						"url": {
							"raw": "localhost:8100/user_banner",
							"host": [
								"localhost"
							],
							"port": "8100",
							"path": [
								"user_banner"
							]
						}
					},
					"status": "Unauthorized",
					"code": 401,
					"_postman_previewlanguage": "plain",
					"header": [
						{
							"key": "Date",
							"value": "Sun, 14 Apr 2024 15:01:27 GMT"
						},
						{
							"key": "Content-Length",
							"value": "0"
						}
					],
					"cookie": [],
					"body": null
				}
			]
		},
		{
			"name": "NoValid",
			"request": {
				"method": "GET",
				"header": [
					{
						"key": "Token",
						"value": "user_token",
						"type": "text"
					}
				],
				"url": {
					"raw": "localhost:8100/user_banner?feature_id=-5&tag_id=-5",
					"host": [
						"localhost"
					],
					"port": "8100",
					"path": [
						"user_banner"
					],
					"query": [
						{
							"key": "feature_id",
							"value": "-5"
						},
						{
							"key": "tag_id",
							"value": "-5"
						}
					]
				}
			},
			"response": [
				{
					"name": "NoValid",
					"originalRequest": {
						"method": "GET",
						"header": [
							{
								"key": "Token",
								"value": "user_token",
								"type": "text"
							}
						],
						"url": {
							"raw": "localhost:8100/user_banner?feature_id=-5&tag_id=-5",
							"host": [
								"localhost"
							],
							"port": "8100",
							"path": [
								"user_banner"
							],
							"query": [
								{
									"key": "feature_id",
									"value": "-5"
								},
								{
									"key": "tag_id",
									"value": "-5"
								}
							]
						}
					},
					"status": "Bad Request",
					"code": 400,
					"_postman_previewlanguage": "json",
					"header": [
						{
							"key": "Content-Type",
							"value": "application/json; charset=utf-8"
						},
						{
							"key": "Date",
							"value": "Sun, 14 Apr 2024 15:01:37 GMT"
						},
						{
							"key": "Content-Length",
							"value": "176"
						}
					],
					"cookie": [],
					"body": "{\n    \"error\": \"Key: 'Input.TagID' Error:Field validation for 'TagID' failed on the 'gte' tag\\nKey: 'Input.FeatureID' Error:Field validation for 'FeatureID' failed on the 'gte' tag\"\n}"
				}
			]
		},
		{
			"name": "NotExists",
			"request": {
				"method": "GET",
				"header": [
					{
						"key": "Token",
						"value": "admin_user",
						"type": "text"
					}
				],
				"url": {
					"raw": "localhost:8100/user_banner?feature_id=100&tag_id=100",
					"host": [
						"localhost"
					],
					"port": "8100",
					"path": [
						"user_banner"
					],
					"query": [
						{
							"key": "feature_id",
							"value": "100"
						},
						{
							"key": "tag_id",
							"value": "100"
						}
					]
				}
			},
			"response": [
				{
					"name": "NotExists",
					"originalRequest": {
						"method": "GET",
						"header": [
							{
								"key": "Token",
								"value": "admin_user",
								"type": "text"
							}
						],
						"url": {
							"raw": "localhost:8100/user_banner?feature_id=100&tag_id=100",
							"host": [
								"localhost"
							],
							"port": "8100",
							"path": [
								"user_banner"
							],
							"query": [
								{
									"key": "feature_id",
									"value": "100"
								},
								{
									"key": "tag_id",
									"value": "100"
								}
							]
						}
					},
					"status": "Not Found",
					"code": 404,
					"_postman_previewlanguage": "plain",
					"header": [
						{
							"key": "Date",
							"value": "Sun, 14 Apr 2024 15:01:51 GMT"
						},
						{
							"key": "Content-Length",
							"value": "0"
						}
					],
					"cookie": [],
					"body": null
				}
			]
		},
		{
			"name": "OnlyFeature",
			"request": {
				"method": "GET",
				"header": [
					{
						"key": "Token",
						"value": "user_token",
						"type": "text"
					}
				],
				"url": {
					"raw": "localhost:8100/user_banner?feature_id=1",
					"host": [
						"localhost"
					],
					"port": "8100",
					"path": [
						"user_banner"
					],
					"query": [
						{
							"key": "feature_id",
							"value": "1"
						}
					]
				}
			},
			"response": [
				{
					"name": "OnlyFeature",
					"originalRequest": {
						"method": "GET",
						"header": [
							{
								"key": "Token",
								"value": "user_token",
								"type": "text"
							}
						],
						"url": {
							"raw": "localhost:8100/user_banner?feature_id=1",
							"host": [
								"localhost"
							],
							"port": "8100",
							"path": [
								"user_banner"
							],
							"query": [
								{
									"key": "feature_id",
									"value": "1"
								}
							]
						}
					},
					"status": "Bad Request",
					"code": 400,
					"_postman_previewlanguage": "json",
					"header": [
						{
							"key": "Content-Type",
							"value": "application/json; charset=utf-8"
						},
						{
							"key": "Date",
							"value": "Sun, 14 Apr 2024 15:02:00 GMT"
						},
						{
							"key": "Content-Length",
							"value": "94"
						}
					],
					"cookie": [],
					"body": "{\n    \"error\": \"Key: 'Input.TagID' Error:Field validation for 'TagID' failed on the 'required' tag\"\n}"
				}
			]
		},
		{
			"name": "OnlyTag",
			"request": {
				"method": "GET",
				"header": [
					{
						"key": "Token",
						"value": "admin_token",
						"type": "text"
					}
				],
				"url": {
					"raw": "localhost:8100/user_banner?tag_id=1",
					"host": [
						"localhost"
					],
					"port": "8100",
					"path": [
						"user_banner"
					],
					"query": [
						{
							"key": "tag_id",
							"value": "1"
						}
					]
				}
			},
			"response": [
				{
					"name": "OnlyTag",
					"originalRequest": {
						"method": "GET",
						"header": [
							{
								"key": "Token",
								"value": "admin_token",
								"type": "text"
							}
						],
						"url": {
							"raw": "localhost:8100/user_banner?tag_id=1",
							"host": [
								"localhost"
							],
							"port": "8100",
							"path": [
								"user_banner"
							],
							"query": [
								{
									"key": "tag_id",
									"value": "1"
								}
							]
						}
					},
					"status": "Bad Request",
					"code": 400,
					"_postman_previewlanguage": "json",
					"header": [
						{
							"key": "Content-Type",
							"value": "application/json; charset=utf-8"
						},
						{
							"key": "Date",
							"value": "Sun, 14 Apr 2024 15:02:11 GMT"
						},
						{
							"key": "Content-Length",
							"value": "102"
						}
					],
					"cookie": [],
					"body": "{\n    \"error\": \"Key: 'Input.FeatureID' Error:Field validation for 'FeatureID' failed on the 'required' tag\"\n}"
				}
			]
		},
		{
			"name": "Valid",
			"request": {
				"method": "GET",
				"header": [
					{
						"key": "token",
						"value": "admin_token",
						"type": "text"
					}
				],
				"url": {
					"raw": "localhost:8100/user_banner?feature_id=1&tag_id=5",
					"host": [
						"localhost"
					],
					"port": "8100",
					"path": [
						"user_banner"
					],
					"query": [
						{
							"key": "feature_id",
							"value": "1"
						},
						{
							"key": "tag_id",
							"value": "5"
						}
					]
				}
			},
			"response": [
				{
					"name": "Valid",
					"originalRequest": {
						"method": "GET",
						"header": [
							{
								"key": "token",
								"value": "admin_token",
								"type": "text"
							}
						],
						"url": {
							"raw": "localhost:8100/user_banner?feature_id=1&tag_id=5",
							"host": [
								"localhost"
							],
							"port": "8100",
							"path": [
								"user_banner"
							],
							"query": [
								{
									"key": "feature_id",
									"value": "1"
								},
								{
									"key": "tag_id",
									"value": "5"
								}
							]
						}
					},
					"status": "OK",
					"code": 200,
					"_postman_previewlanguage": "json",
					"header": [
						{
							"key": "Content-Type",
							"value": "application/json; charset=utf-8"
						},
						{
							"key": "Date",
							"value": "Sun, 14 Apr 2024 15:02:24 GMT"
						},
						{
							"key": "Content-Length",
							"value": "16"
						}
					],
					"cookie": [],
					"body": "{\n    \"title\": \"test\"\n}"
				}
			]
		},
		{
			"name": "LastRevision",
			"request": {
				"method": "GET",
				"header": [
					{
						"key": "Token",
						"value": "admin_token",
						"type": "text"
					}
				],
				"url": {
					"raw": "localhost:8100/user_banner?feature_id=3&tag_id=4&use_last_revision=true",
					"host": [
						"localhost"
					],
					"port": "8100",
					"path": [
						"user_banner"
					],
					"query": [
						{
							"key": "feature_id",
							"value": "3"
						},
						{
							"key": "tag_id",
							"value": "4"
						},
						{
							"key": "use_last_revision",
							"value": "true"
						}
					]
				}
			},
			"response": [
				{
					"name": "LastRevision",
					"originalRequest": {
						"method": "GET",
						"header": [
							{
								"key": "Token",
								"value": "admin_token",
								"type": "text"
							}
						],
						"url": {
							"raw": "localhost:8100/user_banner?feature_id=3&tag_id=4&use_last_revision=true",
							"host": [
								"localhost"
							],
							"port": "8100",
							"path": [
								"user_banner"
							],
							"query": [
								{
									"key": "feature_id",
									"value": "3"
								},
								{
									"key": "tag_id",
									"value": "4"
								},
								{
									"key": "use_last_revision",
									"value": "true"
								}
							]
						}
					},
					"status": "OK",
					"code": 200,
					"_postman_previewlanguage": "json",
					"header": [
						{
							"key": "Content-Type",
							"value": "application/json; charset=utf-8"
						},
						{
							"key": "Date",
							"value": "Sun, 14 Apr 2024 15:02:59 GMT"
						},
						{
							"key": "Content-Length",
							"value": "16"
						}
					],
					"cookie": [],
					"body": "{\n    \"title\": \"test\"\n}"
				}
			]
		}
	]
}